--temp-output:C:\GIT\fr_configurations_cs\Bullet.Framework.Configuration\src\Bullet.Framework.Configuration\obj\Release\netstandard1.6\
--out:C:\GIT\fr_configurations_cs\Bullet.Framework.Configuration\src\Bullet.Framework.Configuration\bin\Release\netstandard1.6\Bullet.Framework.Configuration.dll
--define:RELEASE
--define:TRACE
--define:NETSTANDARD1_6
--suppress-warning:CS1701
--suppress-warning:CS1702
--suppress-warning:CS1705
--optimize:True
--output-name:Bullet.Framework.Configuration
--file-version:0.1.0.0
--version:0.1.0.0
--informational-version:0.1.0-Beta2
--target-framework:.NETStandard,Version=v1.6
--reference:C:\Users\vgabr\.nuget\packages\Microsoft.CSharp\4.0.1\ref\netstandard1.0\Microsoft.CSharp.dll
--reference:C:\Users\vgabr\.nuget\packages\Microsoft.Extensions.Logging.Abstractions\1.0.0\lib\netstandard1.1\Microsoft.Extensions.Logging.Abstractions.dll
--reference:C:\Users\vgabr\.nuget\packages\Microsoft.Win32.Primitives\4.0.1\ref\netstandard1.3\Microsoft.Win32.Primitives.dll
--reference:C:\Users\vgabr\.nuget\packages\Newtonsoft.Json\9.0.1\lib\netstandard1.0\Newtonsoft.Json.dll
--reference:C:\Users\vgabr\.nuget\packages\System.AppContext\4.1.0\ref\netstandard1.6\System.AppContext.dll
--reference:C:\Users\vgabr\.nuget\packages\System.Collections\4.0.11\ref\netstandard1.3\System.Collections.dll
--reference:C:\Users\vgabr\.nuget\packages\System.Collections.Concurrent\4.0.12\ref\netstandard1.3\System.Collections.Concurrent.dll
--reference:C:\Users\vgabr\.nuget\packages\System.Collections.NonGeneric\4.0.1\ref\netstandard1.3\System.Collections.NonGeneric.dll
--reference:C:\Users\vgabr\.nuget\packages\System.ComponentModel\4.0.1\ref\netstandard1.0\System.ComponentModel.dll
--reference:C:\Users\vgabr\.nuget\packages\System.ComponentModel.Primitives\4.1.0\ref\netstandard1.0\System.ComponentModel.Primitives.dll
--reference:C:\Users\vgabr\.nuget\packages\System.ComponentModel.TypeConverter\4.1.0\ref\netstandard1.5\System.ComponentModel.TypeConverter.dll
--reference:C:\Users\vgabr\.nuget\packages\System.Console\4.0.0\ref\netstandard1.3\System.Console.dll
--reference:C:\Users\vgabr\.nuget\packages\System.Diagnostics.Debug\4.0.11\ref\netstandard1.3\System.Diagnostics.Debug.dll
--reference:C:\Users\vgabr\.nuget\packages\System.Diagnostics.Tools\4.0.1\ref\netstandard1.0\System.Diagnostics.Tools.dll
--reference:C:\Users\vgabr\.nuget\packages\System.Diagnostics.Tracing\4.1.0\ref\netstandard1.5\System.Diagnostics.Tracing.dll
--reference:C:\Users\vgabr\.nuget\packages\System.Dynamic.Runtime\4.0.11\ref\netstandard1.3\System.Dynamic.Runtime.dll
--reference:C:\Users\vgabr\.nuget\packages\System.Globalization\4.0.11\ref\netstandard1.3\System.Globalization.dll
--reference:C:\Users\vgabr\.nuget\packages\System.Globalization.Calendars\4.0.1\ref\netstandard1.3\System.Globalization.Calendars.dll
--reference:C:\Users\vgabr\.nuget\packages\System.IO\4.1.0\ref\netstandard1.5\System.IO.dll
--reference:C:\Users\vgabr\.nuget\packages\System.IO.Compression\4.1.0\ref\netstandard1.3\System.IO.Compression.dll
--reference:C:\Users\vgabr\.nuget\packages\System.IO.Compression.ZipFile\4.0.1\ref\netstandard1.3\System.IO.Compression.ZipFile.dll
--reference:C:\Users\vgabr\.nuget\packages\System.IO.FileSystem\4.0.1\ref\netstandard1.3\System.IO.FileSystem.dll
--reference:C:\Users\vgabr\.nuget\packages\System.IO.FileSystem.Primitives\4.0.1\ref\netstandard1.3\System.IO.FileSystem.Primitives.dll
--reference:C:\Users\vgabr\.nuget\packages\System.Linq\4.1.0\ref\netstandard1.6\System.Linq.dll
--reference:C:\Users\vgabr\.nuget\packages\System.Linq.Expressions\4.1.0\ref\netstandard1.6\System.Linq.Expressions.dll
--reference:C:\Users\vgabr\.nuget\packages\System.Net.Http\4.1.0\ref\netstandard1.3\System.Net.Http.dll
--reference:C:\Users\vgabr\.nuget\packages\System.Net.Primitives\4.0.11\ref\netstandard1.3\System.Net.Primitives.dll
--reference:C:\Users\vgabr\.nuget\packages\System.Net.Sockets\4.1.0\ref\netstandard1.3\System.Net.Sockets.dll
--reference:C:\Users\vgabr\.nuget\packages\System.ObjectModel\4.0.12\ref\netstandard1.3\System.ObjectModel.dll
--reference:C:\Users\vgabr\.nuget\packages\System.Reflection\4.1.0\ref\netstandard1.5\System.Reflection.dll
--reference:C:\Users\vgabr\.nuget\packages\System.Reflection.Extensions\4.0.1\ref\netstandard1.0\System.Reflection.Extensions.dll
--reference:C:\Users\vgabr\.nuget\packages\System.Reflection.Primitives\4.0.1\ref\netstandard1.0\System.Reflection.Primitives.dll
--reference:C:\Users\vgabr\.nuget\packages\System.Resources.ResourceManager\4.0.1\ref\netstandard1.0\System.Resources.ResourceManager.dll
--reference:C:\Users\vgabr\.nuget\packages\System.Runtime\4.1.0\ref\netstandard1.5\System.Runtime.dll
--reference:C:\Users\vgabr\.nuget\packages\System.Runtime.Extensions\4.1.0\ref\netstandard1.5\System.Runtime.Extensions.dll
--reference:C:\Users\vgabr\.nuget\packages\System.Runtime.Handles\4.0.1\ref\netstandard1.3\System.Runtime.Handles.dll
--reference:C:\Users\vgabr\.nuget\packages\System.Runtime.InteropServices\4.1.0\ref\netstandard1.5\System.Runtime.InteropServices.dll
--reference:C:\Users\vgabr\.nuget\packages\System.Runtime.InteropServices.RuntimeInformation\4.0.0\ref\netstandard1.1\System.Runtime.InteropServices.RuntimeInformation.dll
--reference:C:\Users\vgabr\.nuget\packages\System.Runtime.Numerics\4.0.1\ref\netstandard1.1\System.Runtime.Numerics.dll
--reference:C:\Users\vgabr\.nuget\packages\System.Runtime.Serialization.Primitives\4.1.1\ref\netstandard1.3\System.Runtime.Serialization.Primitives.dll
--reference:C:\Users\vgabr\.nuget\packages\System.Security.Cryptography.Algorithms\4.2.0\ref\netstandard1.6\System.Security.Cryptography.Algorithms.dll
--reference:C:\Users\vgabr\.nuget\packages\System.Security.Cryptography.Encoding\4.0.0\ref\netstandard1.3\System.Security.Cryptography.Encoding.dll
--reference:C:\Users\vgabr\.nuget\packages\System.Security.Cryptography.Primitives\4.0.0\ref\netstandard1.3\System.Security.Cryptography.Primitives.dll
--reference:C:\Users\vgabr\.nuget\packages\System.Security.Cryptography.X509Certificates\4.1.0\ref\netstandard1.4\System.Security.Cryptography.X509Certificates.dll
--reference:C:\Users\vgabr\.nuget\packages\System.Text.Encoding\4.0.11\ref\netstandard1.3\System.Text.Encoding.dll
--reference:C:\Users\vgabr\.nuget\packages\System.Text.Encoding.Extensions\4.0.11\ref\netstandard1.3\System.Text.Encoding.Extensions.dll
--reference:C:\Users\vgabr\.nuget\packages\System.Text.RegularExpressions\4.1.0\ref\netstandard1.6\System.Text.RegularExpressions.dll
--reference:C:\Users\vgabr\.nuget\packages\System.Threading\4.0.11\ref\netstandard1.3\System.Threading.dll
--reference:C:\Users\vgabr\.nuget\packages\System.Threading.Tasks\4.0.11\ref\netstandard1.3\System.Threading.Tasks.dll
--reference:C:\Users\vgabr\.nuget\packages\System.Threading.Timer\4.0.1\ref\netstandard1.2\System.Threading.Timer.dll
--reference:C:\Users\vgabr\.nuget\packages\System.Xml.ReaderWriter\4.0.11\ref\netstandard1.3\System.Xml.ReaderWriter.dll
--reference:C:\Users\vgabr\.nuget\packages\System.Xml.XDocument\4.0.11\ref\netstandard1.3\System.Xml.XDocument.dll
C:\GIT\fr_configurations_cs\Bullet.Framework.Configuration\src\Bullet.Framework.Configuration\Entities\Cache\SettingsCache.cs
C:\GIT\fr_configurations_cs\Bullet.Framework.Configuration\src\Bullet.Framework.Configuration\Entities\Configuration\BaseConfiguration.cs
C:\GIT\fr_configurations_cs\Bullet.Framework.Configuration\src\Bullet.Framework.Configuration\Entities\Parameters\DefaultConfiguration.cs
C:\GIT\fr_configurations_cs\Bullet.Framework.Configuration\src\Bullet.Framework.Configuration\Entities\Parameters\UniversalParameter.cs
C:\GIT\fr_configurations_cs\Bullet.Framework.Configuration\src\Bullet.Framework.Configuration\Interfaces\Cache\ISerializable.cs
C:\GIT\fr_configurations_cs\Bullet.Framework.Configuration\src\Bullet.Framework.Configuration\Interfaces\Cache\ISettingsProviderCache.cs
C:\GIT\fr_configurations_cs\Bullet.Framework.Configuration\src\Bullet.Framework.Configuration\Interfaces\Source\IConfigurationSettingsSource.cs
C:\GIT\fr_configurations_cs\Bullet.Framework.Configuration\src\Bullet.Framework.Configuration\Properties\AssemblyInfo.cs
